116 1064 1.0
116 477 1.0
116 999 1.0
116 648 1.0
116 925 1.0
116 170 1.0
116 327 1.0
116 391 1.0
116 1345 1.0
116 1238 1.0
116 197 1.0
116 723 1.0
116 220 1.0
116 616 1.0
116 844 1.0
116 357 1.0
116 1168 1.0
32 268 1.0
32 23 1.0
32 290 1.0
32 47 1.0
32 1357 1.0
32 813 1.0
32 332 1.0
32 1136 1.0
32 525 1.0
32 335 1.0
32 452 1.0
32 1315 1.0
32 398 1.0
32 1038 1.0
32 678 1.0
32 1048 1.0
32 142 1.0
32 825 1.0
32 66 1.0
32 558 1.0
32 1107 1.0
32 907 1.0
32 467 1.0
32 842 1.0
53 1079 1.0
53 560 1.0
53 214 1.0
53 1067 1.0
53 1339 1.0
53 470 1.0
53 1244 1.0
53 1050 1.0
53 737 1.0
53 1035 1.0
53 992 1.0
53 1053 1.0
53 903 1.0
53 335 1.0
53 452 1.0
53 434 1.0
53 159 1.0
53 1217 1.0
53 677 1.0
53 114 1.0
53 343 1.0
53 39 1.0
53 731 1.0
53 1108 1.0
110 1173 1.0
110 925 1.0
110 566 1.0
110 955 1.0
110 285 1.0
110 607 1.0
110 511 1.0
110 1079 1.0
152 560 1.0
152 648 1.0
152 1257 1.0
152 459 1.0
152 785 1.0
152 974 1.0
152 871 1.0
152 663 1.0
152 446 1.0
152 217 1.0
152 172 1.0
152 327 1.0
152 1031 1.0
152 585 1.0
152 762 1.0
152 231 1.0
152 536 1.0
152 1189 1.0
152 486 1.0
152 969 1.0
152 796 1.0
152 1227 1.0
152 1202 1.0
152 1328 1.0
152 1212 1.0
152 740 1.0
152 347 1.0
152 431 1.0
152 917 1.0
152 875 1.0
152 136 1.0
152 95 1.0
152 676 1.0
152 1085 1.0
152 467 1.0
152 404 1.0
152 1079 1.0
152 419 1.0
152 302 1.0
152 836 1.0
152 940 1.0
152 738 1.0
152 1258 1.0
128 1079 1.0
128 560 1.0
128 747 1.0
128 700 1.0
128 652 1.0
128 1257 1.0
128 209 1.0
128 1206 1.0
128 1147 1.0
128 217 1.0
128 332 1.0
128 911 1.0
128 784 1.0
128 1031 1.0
128 585 1.0
128 999 1.0
9 648 1.0
9 892 1.0
9 1248 1.0
9 239 1.0
9 1023 1.0
9 1006 1.0
9 1079 1.0
9 208 1.0
9 1106 1.0
9 1144 1.0
9 34 1.0
9 436 1.0
9 217 1.0
9 327 1.0
9 441 1.0
9 1013 1.0
9 576 1.0
9 270 1.0
9 76 1.0
9 820 1.0
9 792 1.0
9 1218 1.0
9 1252 1.0
9 1272 1.0
30 404 1.0
30 626 1.0
30 470 1.0
30 496 1.0
30 925 1.0
30 1280 1.0
30 652 1.0
30 435 1.0
30 101 1.0
30 332 1.0
30 1136 1.0
30 277 1.0
30 1180 1.0
30 456 1.0
30 383 1.0
30 722 1.0
30 37 1.0
30 1192 1.0
30 1032 1.0
30 758 1.0
30 434 1.0
30 1362 1.0
30 286 1.0
30 25 1.0
30 1204 1.0
30 1011 1.0
30 440 1.0
30 755 1.0
30 1330 1.0
30 1169 1.0
30 318 1.0
30 648 1.0
30 493 1.0
30 1339 1.0
30 601 1.0
30 186 1.0
30 327 1.0
30 474 1.0
30 651 1.0
30 1372 1.0
30 210 1.0
30 630 1.0
130 760 1.0
130 1165 1.0
130 628 1.0
130 1160 1.0
130 63 1.0
130 1163 1.0
130 690 1.0
130 986 1.0
130 937 1.0
130 311 1.0
130 1086 1.0
130 1091 1.0
130 57 1.0
130 163 1.0
130 497 1.0
130 105 1.0
130 471 1.0
130 845 1.0
130 852 1.0
130 154 1.0
130 1373 1.0
130 515 1.0
130 827 1.0
130 244 1.0
130 475 1.0
130 1298 1.0
130 757 1.0
130 872 1.0
130 434 1.0
130 1300 1.0
130 537 1.0
130 490 1.0
130 194 1.0
78 1103 1.0
78 1322 1.0
78 1068 1.0
78 649 1.0
78 983 1.0
78 1201 1.0
78 71 1.0
78 78 1.0
78 707 1.0
78 379 1.0
64 333 1.0
64 1182 1.0
34 505 1.0
34 1351 1.0
34 801 1.0
34 908 1.0
34 350 1.0
34 434 1.0
34 811 1.0
34 554 1.0
34 78 1.0
34 176 1.0
34 1174 1.0
34 1347 1.0
0 276 1.0
0 189 1.0
0 138 1.0
0 920 1.0
0 648 1.0
0 1079 1.0
0 1284 1.0
0 1138 1.0
0 326 1.0
0 259 1.0
0 795 1.0
0 313 1.0
0 945 1.0
0 894 1.0
0 77 1.0
0 913 1.0
0 80 1.0
0 577 1.0
0 1194 1.0
0 633 1.0
0 419 1.0
0 396 1.0
0 22 1.0
0 139 1.0
0 1183 1.0
0 347 1.0
0 315 1.0
0 73 1.0
0 78 1.0
0 613 1.0
0 404 1.0
88 648 1.0
88 560 1.0
88 340 1.0
88 747 1.0
88 1155 1.0
88 470 1.0
88 1225 1.0
88 673 1.0
88 633 1.0
88 1133 1.0
88 858 1.0
88 778 1.0
88 504 1.0
88 836 1.0
88 20 1.0
88 1101 1.0
88 42 1.0
140 1382 1.0
140 348 1.0
140 51 1.0
13 1309 1.0
13 392 1.0
13 434 1.0
13 808 1.0
13 887 1.0
23 818 1.0
23 612 1.0
23 1291 1.0
23 1012 1.0
23 768 1.0
23 390 1.0
23 1131 1.0
23 1318 1.0
23 1326 1.0
23 349 1.0
23 618 1.0
23 389 1.0
23 1118 1.0
23 848 1.0
23 877 1.0
23 373 1.0
23 1036 1.0
23 1105 1.0
23 29 1.0
23 176 1.0
23 560 1.0
23 404 1.0
77 990 1.0
77 495 1.0
77 78 1.0
82 648 1.0
82 404 1.0
160 959 1.0
160 353 1.0
160 329 1.0
160 418 1.0
160 1270 1.0
160 1353 1.0
160 836 1.0
160 1325 1.0
160 1060 1.0
160 1253 1.0
160 1331 1.0
160 590 1.0
160 78 1.0
95 1316 1.0
95 438 1.0
95 362 1.0
95 1108 1.0
95 566 1.0
95 925 1.0
95 895 1.0
95 458 1.0
95 119 1.0
95 233 1.0
95 675 1.0
95 253 1.0
95 624 1.0
95 1124 1.0
95 584 1.0
95 580 1.0
95 186 1.0
95 143 1.0
95 410 1.0
95 338 1.0
95 396 1.0
95 1035 1.0
95 809 1.0
95 455 1.0
95 684 1.0
95 1186 1.0
85 160 1.0
85 959 1.0
85 24 1.0
85 61 1.0
85 329 1.0
85 418 1.0
85 860 1.0
85 451 1.0
85 205 1.0
85 836 1.0
85 1335 1.0
85 273 1.0
85 1020 1.0
85 404 1.0
85 648 1.0
85 208 1.0
85 1376 1.0
85 78 1.0
85 96 1.0
126 648 1.0
126 1108 1.0
126 1173 1.0
126 566 1.0
126 688 1.0
126 639 1.0
126 797 1.0
126 626 1.0
126 274 1.0
126 1140 1.0
126 531 1.0
126 166 1.0
126 1170 1.0
126 215 1.0
126 1356 1.0
126 153 1.0
126 849 1.0
126 999 1.0
132 857 1.0
132 404 1.0
132 1079 1.0
132 648 1.0
132 560 1.0
132 625 1.0
132 901 1.0
132 266 1.0
132 514 1.0
132 1190 1.0
90 404 1.0
90 648 1.0
90 35 1.0
90 560 1.0
90 769 1.0
90 75 1.0
90 34 1.0
90 262 1.0
90 1167 1.0
90 1083 1.0
165 648 1.0
165 225 1.0
165 952 1.0
165 754 1.0
165 1108 1.0
165 566 1.0
165 1173 1.0
165 925 1.0
165 340 1.0
165 747 1.0
165 421 1.0
165 353 1.0
165 385 1.0
165 447 1.0
165 327 1.0
165 836 1.0
165 789 1.0
165 58 1.0
165 817 1.0
165 1079 1.0
170 404 1.0
170 648 1.0
170 560 1.0
170 769 1.0
170 75 1.0
170 870 1.0
170 436 1.0
170 1167 1.0
170 106 1.0
170 446 1.0
170 217 1.0
170 1070 1.0
170 993 1.0
170 1343 1.0
170 282 1.0
170 195 1.0
170 78 1.0
170 16 1.0
170 1158 1.0
170 96 1.0
171 857 1.0
171 648 1.0
171 1106 1.0
171 896 1.0
171 418 1.0
171 472 1.0
171 1136 1.0
171 332 1.0
171 321 1.0
171 1128 1.0
171 1323 1.0
168 627 1.0
168 566 1.0
168 925 1.0
168 933 1.0
168 1113 1.0
168 397 1.0
168 549 1.0
168 164 1.0
168 351 1.0
168 312 1.0
168 995 1.0
168 928 1.0
168 889 1.0
168 148 1.0
168 831 1.0
168 423 1.0
168 1099 1.0
168 557 1.0
168 799 1.0
168 56 1.0
168 1293 1.0
168 1360 1.0
168 607 1.0
168 1181 1.0
168 305 1.0
168 1379 1.0
168 1119 1.0
168 15 1.0
168 1063 1.0
168 303 1.0
168 363 1.0
168 561 1.0
168 743 1.0
168 171 1.0
168 544 1.0
168 1059 1.0
168 560 1.0
89 781 1.0
89 766 1.0
89 434 1.0
89 1273 1.0
89 1071 1.0
89 299 1.0
33 703 1.0
33 1141 1.0
33 1264 1.0
33 597 1.0
33 657 1.0
33 74 1.0
33 810 1.0
33 632 1.0
92 404 1.0
92 1023 1.0
92 1051 1.0
92 1329 1.0
179 1112 1.0
179 1106 1.0
179 1079 1.0
65 857 1.0
65 648 1.0
65 1106 1.0
65 187 1.0
65 27 1.0
65 1135 1.0
65 374 1.0
65 321 1.0
106 10 1.0
106 857 1.0
106 1127 1.0
106 72 1.0
106 999 1.0
146 994 1.0
146 919 1.0
133 323 1.0
133 1327 1.0
133 307 1.0
133 1260 1.0
133 588 1.0
74 1079 1.0
74 402 1.0
74 1022 1.0
74 551 1.0
74 229 1.0
108 1374 1.0
61 1352 1.0
61 826 1.0
61 159 1.0
61 1116 1.0
121 788 1.0
121 622 1.0
121 687 1.0
121 753 1.0
70 1382 1.0
70 783 1.0
144 631 1.0
144 661 1.0
144 937 1.0
144 1241 1.0
144 655 1.0
144 997 1.0
144 343 1.0
144 1209 1.0
94 316 1.0
94 156 1.0
94 837 1.0
94 539 1.0
94 1172 1.0
94 254 1.0
94 269 1.0
94 107 1.0
94 1355 1.0
94 602 1.0
94 1197 1.0
94 1030 1.0
94 689 1.0
94 278 1.0
94 881 1.0
94 1207 1.0
94 257 1.0
94 636 1.0
94 1236 1.0
94 793 1.0
94 648 1.0
136 298 1.0
136 1126 1.0
40 1230 1.0
40 851 1.0
40 1185 1.0
176 450 1.0
176 289 1.0
176 830 1.0
176 518 1.0
176 532 1.0
111 464 1.0
111 856 1.0
111 1077 1.0
111 1145 1.0
111 300 1.0
52 1205 1.0
52 884 1.0
52 605 1.0
52 1054 1.0
52 223 1.0
52 137 1.0
52 393 1.0
52 1305 1.0
52 553 1.0
62 583 1.0
62 482 1.0
26 355 1.0
145 293 1.0
145 201 1.0
178 996 1.0
178 145 1.0
178 485 1.0
178 1151 1.0
178 378 1.0
127 698 1.0
127 605 1.0
127 1054 1.0
127 62 1.0
41 1153 1.0
41 982 1.0
41 1282 1.0
44 93 1.0
44 186 1.0
44 587 1.0
44 1193 1.0
44 1093 1.0
44 165 1.0
44 494 1.0
44 457 1.0
44 30 1.0
44 50 1.0
44 394 1.0
44 1368 1.0
44 433 1.0
44 772 1.0
44 739 1.0
44 271 1.0
44 1243 1.0
45 353 1.0
45 140 1.0
45 1150 1.0
45 418 1.0
45 472 1.0
45 1136 1.0
45 332 1.0
45 451 1.0
45 918 1.0
45 1303 1.0
45 229 1.0
45 19 1.0
159 87 1.0
159 1296 1.0
159 794 1.0
159 915 1.0
159 488 1.0
159 759 1.0
159 988 1.0
159 548 1.0
159 1231 1.0
159 517 1.0
159 9 1.0
159 1003 1.0
159 890 1.0
159 19 1.0
159 965 1.0
159 694 1.0
167 1162 1.0
167 489 1.0
149 971 1.0
149 559 1.0
149 250 1.0
150 709 1.0
150 724 1.0
150 280 1.0
150 1338 1.0
150 488 1.0
150 868 1.0
150 759 1.0
150 1002 1.0
150 97 1.0
150 306 1.0
150 1115 1.0
150 725 1.0
119 1096 1.0
119 243 1.0
119 1342 1.0
119 17 1.0
16 963 1.0
21 131 1.0
169 399 1.0
169 1152 1.0
169 498 1.0
169 147 1.0
169 107 1.0
169 666 1.0
169 265 1.0
169 356 1.0
169 1302 1.0
169 58 1.0
169 696 1.0
169 1100 1.0
169 800 1.0
169 344 1.0
169 117 1.0
169 149 1.0
169 1191 1.0
169 1175 1.0
169 1312 1.0
3 1122 1.0
3 399 1.0
3 107 1.0
3 1312 1.0
101 832 1.0
101 1255 1.0
101 3 1.0
101 405 1.0
101 484 1.0
101 249 1.0
101 1320 1.0
101 579 1.0
101 666 1.0
101 1220 1.0
101 859 1.0
101 914 1.0
101 958 1.0
101 1211 1.0
101 1215 1.0
101 812 1.0
101 1171 1.0
101 487 1.0
101 898 1.0
101 732 1.0
101 692 1.0
101 1102 1.0
101 88 1.0
101 251 1.0
101 1258 1.0
101 705 1.0
120 188 1.0
120 721 1.0
120 319 1.0
120 226 1.0
120 144 1.0
120 360 1.0
120 488 1.0
120 915 1.0
120 127 1.0
120 191 1.0
120 1003 1.0
120 1091 1.0
120 232 1.0
120 152 1.0
120 1074 1.0
120 661 1.0
114 937 1.0
114 1001 1.0
114 412 1.0
114 11 1.0
114 59 1.0
114 134 1.0
114 1157 1.0
114 522 1.0
114 52 1.0
114 569 1.0
114 829 1.0
114 448 1.0
114 133 1.0
114 1376 1.0
114 816 1.0
114 1010 1.0
114 466 1.0
114 598 1.0
129 617 1.0
49 1307 1.0
49 163 1.0
49 1091 1.0
49 637 1.0
49 236 1.0
49 691 1.0
49 527 1.0
49 562 1.0
49 413 1.0
49 454 1.0
49 384 1.0
49 406 1.0
49 26 1.0
156 937 1.0
156 524 1.0
156 1346 1.0
156 113 1.0
156 1159 1.0
156 111 1.0
156 659 1.0
156 1336 1.0
156 401 1.0
156 434 1.0
156 575 1.0
156 623 1.0
98 904 1.0
98 1333 1.0
98 932 1.0
98 1061 1.0
98 706 1.0
98 85 1.0
98 5 1.0
98 241 1.0
98 710 1.0
98 202 1.0
148 1178 1.0
148 295 1.0
148 775 1.0
8 255 1.0
8 203 1.0
8 893 1.0
8 524 1.0
8 1091 1.0
8 288 1.0
8 662 1.0
8 1301 1.0
8 552 1.0
8 434 1.0
8 1146 1.0
8 1176 1.0
8 787 1.0
86 161 1.0
86 837 1.0
86 528 1.0
86 689 1.0
86 1177 1.0
86 978 1.0
86 656 1.0
86 1026 1.0
86 1237 1.0
86 862 1.0
86 1068 1.0
86 317 1.0
86 1361 1.0
86 513 1.0
86 1172 1.0
86 1289 1.0
86 629 1.0
86 367 1.0
86 331 1.0
86 621 1.0
86 665 1.0
86 159 1.0
86 429 1.0
86 1057 1.0
86 863 1.0
86 1222 1.0
86 791 1.0
86 462 1.0
86 1228 1.0
86 334 1.0
12 255 1.0
12 203 1.0
12 163 1.0
12 524 1.0
12 1281 1.0
12 1198 1.0
12 1350 1.0
12 283 1.0
12 358 1.0
12 0 1.0
12 1214 1.0
12 39 1.0
12 292 1.0
12 1195 1.0
12 1146 1.0
12 1348 1.0
76 255 1.0
76 596 1.0
76 680 1.0
76 524 1.0
76 594 1.0
76 942 1.0
76 176 1.0
76 760 1.0
76 1146 1.0
76 224 1.0
104 123 1.0
104 1044 1.0
104 79 1.0
104 1308 1.0
104 213 1.0
54 1072 1.0
54 674 1.0
54 449 1.0
54 534 1.0
54 1297 1.0
54 1378 1.0
54 194 1.0
54 480 1.0
54 1292 1.0
54 745 1.0
54 461 1.0
54 432 1.0
54 200 1.0
54 1310 1.0
54 885 1.0
54 443 1.0
54 967 1.0
54 756 1.0
54 158 1.0
14 1037 1.0
14 685 1.0
14 31 1.0
14 559 1.0
14 465 1.0
14 69 1.0
14 794 1.0
14 854 1.0
14 578 1.0
14 805 1.0
14 899 1.0
14 916 1.0
14 878 1.0
14 314 1.0
14 434 1.0
14 1074 1.0
14 837 1.0
84 122 1.0
84 866 1.0
84 1226 1.0
84 1004 1.0
84 638 1.0
84 48 1.0
84 909 1.0
84 359 1.0
84 600 1.0
84 1223 1.0
84 679 1.0
84 1200 1.0
84 1104 1.0
84 416 1.0
100 122 1.0
100 866 1.0
100 1226 1.0
100 1004 1.0
100 638 1.0
100 48 1.0
100 909 1.0
100 600 1.0
100 883 1.0
27 198 1.0
27 804 1.0
27 764 1.0
27 659 1.0
27 252 1.0
27 49 1.0
27 741 1.0
27 876 1.0
27 1146 1.0
27 12 1.0
27 943 1.0
122 606 1.0
122 528 1.0
122 837 1.0
122 669 1.0
122 122 1.0
122 48 1.0
122 173 1.0
122 874 1.0
122 1082 1.0
122 693 1.0
122 1092 1.0
122 1313 1.0
122 834 1.0
122 53 1.0
122 1210 1.0
122 1285 1.0
122 977 1.0
122 1062 1.0
122 1075 1.0
122 658 1.0
122 944 1.0
122 476 1.0
122 730 1.0
122 1263 1.0
122 167 1.0
122 386 1.0
96 122 1.0
96 966 1.0
96 927 1.0
96 609 1.0
96 41 1.0
96 427 1.0
96 444 1.0
96 64 1.0
96 672 1.0
96 656 1.0
96 1262 1.0
96 682 1.0
96 507 1.0
96 1161 1.0
96 611 1.0
96 610 1.0
96 1234 1.0
96 637 1.0
96 630 1.0
96 973 1.0
96 980 1.0
96 1250 1.0
96 634 1.0
96 325 1.0
66 814 1.0
66 13 1.0
66 752 1.0
66 656 1.0
66 720 1.0
66 734 1.0
66 838 1.0
66 1177 1.0
66 230 1.0
66 1380 1.0
66 115 1.0
66 777 1.0
66 1068 1.0
66 779 1.0
66 99 1.0
66 987 1.0
66 1199 1.0
66 83 1.0
66 1089 1.0
66 380 1.0
66 1371 1.0
66 190 1.0
66 592 1.0
66 445 1.0
66 387 1.0
66 1261 1.0
66 670 1.0
66 1137 1.0
66 18 1.0
66 912 1.0
66 94 1.0
66 1099 1.0
66 1299 1.0
66 837 1.0
4 603 1.0
4 711 1.0
4 1286 1.0
4 839 1.0
4 1276 1.0
4 115 1.0
4 230 1.0
4 125 1.0
4 442 1.0
4 91 1.0
4 798 1.0
4 324 1.0
4 715 1.0
4 956 1.0
4 221 1.0
4 505 1.0
4 1278 1.0
4 1358 1.0
105 240 1.0
105 828 1.0
105 926 1.0
105 295 1.0
105 713 1.0
105 646 1.0
105 1034 1.0
105 1348 1.0
79 255 1.0
79 102 1.0
79 330 1.0
79 1277 1.0
79 1341 1.0
79 309 1.0
79 930 1.0
79 163 1.0
79 1076 1.0
79 1350 1.0
79 283 1.0
79 358 1.0
79 39 1.0
79 1146 1.0
7 2 1.0
7 937 1.0
31 1103 1.0
31 568 1.0
31 478 1.0
47 1355 1.0
47 1246 1.0
47 968 1.0
47 727 1.0
47 328 1.0
47 886 1.0
36 661 1.0
36 260 1.0
36 736 1.0
36 1242 1.0
36 749 1.0
36 960 1.0
36 1109 1.0
36 334 1.0
71 937 1.0
71 519 1.0
71 395 1.0
71 1187 1.0
71 1237 1.0
71 1068 1.0
71 159 1.0
71 1099 1.0
71 649 1.0
71 296 1.0
15 1334 1.0
15 1346 1.0
15 1249 1.0
15 288 1.0
15 258 1.0
15 1029 1.0
15 1154 1.0
15 1040 1.0
15 369 1.0
15 1018 1.0
15 1251 1.0
15 82 1.0
15 1213 1.0
15 415 1.0
161 255 1.0
161 203 1.0
161 1355 1.0
161 524 1.0
161 1076 1.0
161 1047 1.0
161 697 1.0
161 947 1.0
161 491 1.0
161 1146 1.0
161 1359 1.0
161 1114 1.0
161 279 1.0
164 937 1.0
164 1 1.0
164 4 1.0
164 1087 1.0
164 1364 1.0
164 1074 1.0
164 492 1.0
80 255 1.0
80 937 1.0
80 979 1.0
80 1355 1.0
80 855 1.0
80 1027 1.0
80 372 1.0
80 697 1.0
80 1046 1.0
80 922 1.0
80 1229 1.0
35 957 1.0
35 1221 1.0
35 630 1.0
35 555 1.0
35 1268 1.0
35 375 1.0
35 572 1.0
35 873 1.0
35 1042 1.0
35 499 1.0
35 376 1.0
72 255 1.0
72 1090 1.0
72 524 1.0
72 1076 1.0
72 365 1.0
72 608 1.0
72 1290 1.0
72 593 1.0
72 479 1.0
72 412 1.0
72 1314 1.0
72 760 1.0
72 1024 1.0
72 879 1.0
72 1146 1.0
72 1149 1.0
72 17 1.0
72 1287 1.0
125 661 1.0
125 937 1.0
125 586 1.0
125 1266 1.0
125 1251 1.0
125 1045 1.0
125 567 1.0
125 1213 1.0
125 1274 1.0
125 790 1.0
125 175 1.0
125 320 1.0
125 1098 1.0
125 546 1.0
18 953 1.0
18 1233 1.0
18 1041 1.0
18 524 1.0
18 582 1.0
18 620 1.0
18 1049 1.0
18 1366 1.0
18 238 1.0
18 407 1.0
18 1005 1.0
18 728 1.0
18 645 1.0
18 193 1.0
18 432 1.0
18 816 1.0
18 702 1.0
18 774 1.0
18 1146 1.0
18 776 1.0
18 179 1.0
18 291 1.0
18 819 1.0
112 695 1.0
112 196 1.0
112 771 1.0
112 509 1.0
112 556 1.0
112 185 1.0
112 951 1.0
112 1314 1.0
112 821 1.0
112 533 1.0
83 255 1.0
83 934 1.0
83 1259 1.0
83 102 1.0
83 388 1.0
83 1019 1.0
83 524 1.0
83 1076 1.0
83 1249 1.0
83 212 1.0
83 647 1.0
83 650 1.0
83 1224 1.0
83 151 1.0
83 521 1.0
83 843 1.0
83 1097 1.0
83 712 1.0
83 1314 1.0
83 229 1.0
83 68 1.0
137 1340 1.0
137 668 1.0
137 614 1.0
137 180 1.0
137 89 1.0
137 409 1.0
137 426 1.0
137 1008 1.0
137 40 1.0
137 366 1.0
137 1184 1.0
137 113 1.0
137 287 1.0
137 807 1.0
137 246 1.0
137 1017 1.0
137 512 1.0
137 252 1.0
137 45 1.0
137 643 1.0
137 780 1.0
137 33 1.0
137 599 1.0
137 751 1.0
137 1225 1.0
137 1381 1.0
1 3 1.0
1 245 1.0
1 98 1.0
1 964 1.0
1 434 1.0
1 555 1.0
1 437 1.0
1 428 1.0
17 541 1.0
17 70 1.0
17 92 1.0
17 524 1.0
17 905 1.0
17 853 1.0
17 28 1.0
17 288 1.0
17 1121 1.0
17 1240 1.0
17 503 1.0
17 1365 1.0
17 530 1.0
17 501 1.0
17 671 1.0
17 439 1.0
17 776 1.0
17 924 1.0
17 43 1.0
17 1146 1.0
17 81 1.0
17 615 1.0
107 272 1.0
19 267 1.0
147 506 1.0
99 247 1.0
67 104 1.0
153 1039 1.0
43 510 1.0
43 361 1.0
43 132 1.0
43 333 1.0
43 1196 1.0
43 1134 1.0
43 242 1.0
43 773 1.0
43 7 1.0
43 746 1.0
43 261 1.0
43 861 1.0
43 135 1.0
43 529 1.0
43 1355 1.0
43 294 1.0
43 488 1.0
43 281 1.0
43 377 1.0
43 126 1.0
43 463 1.0
43 460 1.0
43 1349 1.0
43 103 1.0
43 918 1.0
43 667 1.0
43 938 1.0
43 424 1.0
43 1049 1.0
43 1007 1.0
43 345 1.0
43 543 1.0
43 1295 1.0
43 1294 1.0
43 1375 1.0
43 765 1.0
43 310 1.0
43 719 1.0
43 770 1.0
43 545 1.0
43 981 1.0
43 284 1.0
43 1073 1.0
43 1120 1.0
43 1123 1.0
43 481 1.0
43 1016 1.0
43 763 1.0
43 1028 1.0
43 1055 1.0
43 774 1.0
43 701 1.0
43 467 1.0
43 237 1.0
43 850 1.0
43 802 1.0
43 14 1.0
43 704 1.0
43 1069 1.0
43 44 1.0
43 32 1.0
43 1129 1.0
43 941 1.0
43 235 1.0
43 520 1.0
43 716 1.0
43 735 1.0
43 508 1.0
43 184 1.0
43 574 1.0
172 1265 1.0
172 559 1.0
172 906 1.0
172 915 1.0
172 488 1.0
172 759 1.0
172 776 1.0
172 988 1.0
172 548 1.0
172 301 1.0
172 381 1.0
172 19 1.0
172 841 1.0
172 1025 1.0
172 339 1.0
172 517 1.0
172 9 1.0
172 1224 1.0
172 619 1.0
172 1166 1.0
172 216 1.0
172 1014 1.0
172 961 1.0
142 6 1.0
142 699 1.0
142 65 1.0
142 916 1.0
142 144 1.0
142 360 1.0
142 915 1.0
142 488 1.0
142 127 1.0
142 591 1.0
142 1021 1.0
142 1355 1.0
142 1052 1.0
142 1091 1.0
142 1074 1.0
142 867 1.0
142 1143 1.0
2 1311 1.0
2 837 1.0
2 122 1.0
2 55 1.0
2 689 1.0
2 128 1.0
2 970 1.0
2 642 1.0
2 717 1.0
2 563 1.0
2 516 1.0
2 304 1.0
2 835 1.0
2 1125 1.0
2 654 1.0
2 1058 1.0
2 337 1.0
2 686 1.0
141 110 1.0
141 218 1.0
141 640 1.0
141 36 1.0
141 1314 1.0
141 400 1.0
141 1076 1.0
141 354 1.0
141 88 1.0
141 1321 1.0
141 502 1.0
141 500 1.0
141 664 1.0
141 897 1.0
141 570 1.0
141 1178 1.0
141 975 1.0
141 473 1.0
141 1117 1.0
141 573 1.0
141 1232 1.0
141 708 1.0
141 121 1.0
141 211 1.0
141 714 1.0
141 1370 1.0
141 467 1.0
141 989 1.0
141 1132 1.0
141 1319 1.0
141 1015 1.0
141 109 1.0
141 414 1.0
141 923 1.0
141 183 1.0
141 364 1.0
141 411 1.0
141 1367 1.0
141 420 1.0
141 1219 1.0
141 936 1.0
141 882 1.0
141 146 1.0
141 370 1.0
141 644 1.0
141 806 1.0
174 178 1.0
174 998 1.0
174 469 1.0
46 1079 1.0
56 1279 1.0
56 648 1.0
56 1000 1.0
56 1283 1.0
56 425 1.0
56 902 1.0
56 1258 1.0
56 141 1.0
56 547 1.0
56 38 1.0
56 1056 1.0
56 422 1.0
56 1035 1.0
56 408 1.0
56 1267 1.0
56 542 1.0
56 192 1.0
56 782 1.0
56 150 1.0
56 234 1.0
56 581 1.0
56 1130 1.0
28 949 1.0
28 96 1.0
28 1079 1.0
28 404 1.0
28 1363 1.0
28 1203 1.0
28 256 1.0
28 248 1.0
28 683 1.0
28 452 1.0
28 557 1.0
28 565 1.0
28 1247 1.0
28 900 1.0
28 846 1.0
28 950 1.0
28 228 1.0
28 434 1.0
28 1188 1.0
28 985 1.0
28 815 1.0
28 1216 1.0
28 1179 1.0
28 490 1.0
28 962 1.0
28 1158 1.0
28 931 1.0
51 1249 1.0
51 1088 1.0
51 82 1.0
51 163 1.0
6 1344 1.0
6 744 1.0
6 803 1.0
6 67 1.0
24 847 1.0
24 1187 1.0
24 526 1.0
63 1235 1.0
63 163 1.0
63 434 1.0
58 1139 1.0
59 538 1.0
59 750 1.0
59 1239 1.0
59 550 1.0
59 1314 1.0
59 1068 1.0
59 1301 1.0
59 483 1.0
59 935 1.0
59 760 1.0
59 604 1.0
59 946 1.0
59 776 1.0
59 865 1.0
157 1354 1.0
157 311 1.0
157 1254 1.0
157 54 1.0
157 1080 1.0
157 206 1.0
157 823 1.0
157 182 1.0
157 939 1.0
157 238 1.0
157 162 1.0
157 116 1.0
157 742 1.0
157 244 1.0
157 726 1.0
157 976 1.0
157 954 1.0
157 1271 1.0
157 921 1.0
157 681 1.0
157 297 1.0
157 1146 1.0
157 1142 1.0
157 1111 1.0
93 204 1.0
93 937 1.0
93 434 1.0
93 346 1.0
93 1350 1.0
93 283 1.0
93 343 1.0
39 767 1.0
39 524 1.0
39 833 1.0
39 1369 1.0
39 130 1.0
39 653 1.0
39 1314 1.0
39 86 1.0
39 8 1.0
39 112 1.0
39 244 1.0
39 368 1.0
39 726 1.0
39 954 1.0
39 1043 1.0
39 179 1.0
39 0 1.0
39 921 1.0
39 1146 1.0
39 905 1.0
39 972 1.0
39 776 1.0
39 1132 1.0
81 824 1.0
81 84 1.0
81 1249 1.0
81 1156 1.0
81 432 1.0
81 219 1.0
81 1084 1.0
131 85 1.0
131 21 1.0
131 1110 1.0
55 733 1.0
55 1086 1.0
55 641 1.0
177 1337 1.0
177 118 1.0
25 174 1.0
25 360 1.0
25 759 1.0
25 888 1.0
115 120 1.0
115 411 1.0
115 264 1.0
115 984 1.0
115 936 1.0
115 403 1.0
115 948 1.0
115 322 1.0
115 556 1.0
115 1066 1.0
115 1091 1.0
115 109 1.0
115 207 1.0
115 840 1.0
115 635 1.0
115 1078 1.0
115 1377 1.0
115 910 1.0
163 1306 1.0
163 222 1.0
163 1317 1.0
163 1001 1.0
163 336 1.0
163 417 1.0
163 182 1.0
163 263 1.0
163 1095 1.0
163 1269 1.0
163 660 1.0
163 1195 1.0
163 227 1.0
163 430 1.0
163 1164 1.0
163 124 1.0
163 1076 1.0
163 342 1.0
163 343 1.0
163 434 1.0
163 535 1.0
60 937 1.0
60 979 1.0
60 1091 1.0
60 168 1.0
60 468 1.0
60 1288 1.0
60 523 1.0
60 341 1.0
60 589 1.0
60 880 1.0
117 100 1.0
117 929 1.0
117 181 1.0
117 157 1.0
117 991 1.0
117 352 1.0
117 169 1.0
117 1042 1.0
117 645 1.0
117 571 1.0
117 729 1.0
117 275 1.0
117 308 1.0
117 467 1.0
97 1009 1.0
97 1208 1.0
97 1355 1.0
97 595 1.0
97 852 1.0
97 8 1.0
97 129 1.0
97 244 1.0
97 954 1.0
97 1332 1.0
97 1033 1.0
97 1043 1.0
97 453 1.0
97 564 1.0
97 382 1.0
97 972 1.0
97 155 1.0
97 199 1.0
97 1304 1.0
97 108 1.0
166 786 1.0
166 1275 1.0
75 1256 1.0
75 891 1.0
75 46 1.0
75 1245 1.0
75 1324 1.0
75 1148 1.0
75 748 1.0
75 177 1.0
68 822 1.0
68 60 1.0
68 371 1.0
68 718 1.0
68 1065 1.0
20 864 1.0
20 869 1.0
20 908 1.0
123 505 1.0
50 801 1.0
50 90 1.0
50 1081 1.0
155 540 1.0
155 1094 1.0
155 761 1.0
109 966 1.0
109 927 1.0
109 609 1.0
109 41 1.0
109 427 1.0
109 444 1.0
109 64 1.0
109 672 1.0
154 560 1.0
154 214 1.0
154 1067 1.0
154 1339 1.0
154 470 1.0
154 1244 1.0
154 1050 1.0
154 737 1.0
5 161 1.0
103 1255 1.0
103 3 1.0
103 405 1.0
103 484 1.0
103 249 1.0
118 1037 1.0
139 1291 1.0
139 1012 1.0
139 768 1.0
139 390 1.0
139 1131 1.0
139 1318 1.0
139 1326 1.0
113 626 1.0
113 470 1.0
113 496 1.0
113 925 1.0
113 1280 1.0
113 652 1.0
113 435 1.0
175 1001 1.0
175 412 1.0
175 11 1.0
175 59 1.0
175 134 1.0
175 1157 1.0
38 87 1.0
38 794 1.0
38 915 1.0
38 488 1.0
38 759 1.0
38 988 1.0
102 560 1.0
102 340 1.0
158 837 1.0
158 669 1.0
158 122 1.0
158 48 1.0
158 173 1.0
158 874 1.0
134 648 1.0
91 13 1.0
91 752 1.0
91 656 1.0
151 477 1.0
151 999 1.0
151 648 1.0
151 925 1.0
151 170 1.0
151 327 1.0
151 391 1.0
162 648 1.0
162 1173 1.0
162 566 1.0
162 688 1.0
162 639 1.0
162 797 1.0
162 626 1.0
